branches/tfla-01-0.2/doc/test/IR_CYFRA.vcd
$date
$end
$version Fabolous Logic Analyzer 1.0  $end
$timescale 100 ns $end
$scope module TFLA $end
$var wire 1 ! D0 $end
$var wire 1 " D1 $end
$var wire 1 # D2 $end
$var wire 1 $ D3 $end
$var wire 1 % D4 $end
$var wire 1 & D5 $end
$var wire 1 ' D6 $end
$var wire 1 ( D7 $end
$upscope $end
$enddefinitions $end
$dumpvars
#0
1! 0" 0# 0$ 1% 1& 0' 1(
$end
#407815
0!
#419772
1!
#425728
0!
#446223
1!
#452289
0!
#463982
1!
#479049
0!
#499058
1!
#514192
0!
#534665
1!
#540202
0!
#551299
1!
#557718
0!
#569058
1!
#575566
0!
#586861
1!
#593258
0!
#604554
1!
#611062
0!
#622379
1!
#638086
0!
#649359
1!
#1538524
0!
#1550591
1!
#1556525
0!
#1577240
1!
#1583285
0!
#1594977
1!
#1609979
0!
#1630517
1!
#1645894
0!
#1666366
1!
#1672786
0!
#1684125
1!
#1690589
0!
#1701929
1!
#1708459
0!
#1719246
1!
#1726306
0!
#1735880
1!
#1743006
0!
#1753507
1!
#1770008
0!
#1781304
1!
#2665239
0!
#2677263
1!
#2683219
0!
#2704000
1!
#2709979
0!
#2721737
1!
#2736717
0!
#2757278
1!
#2772632
0!
#2793082
1!
#2799458
0!
#2810334
1!
#2816798
0!
#2828159
1!
#2834689
0!
#2845962
1!
#2852514
0!
#2863854
1!
#2870340
0!
#2881679
1!
#2897320
0!
#2908615
1!
#3791051
0!
#3803096
1!
#3809053
0!
#3829680
1!
#3835636
0!
#3847240
1!
#3862065
0!
#3882449
1!
#3897715
0!
#3917967
1!
#3924343
0!
#3935550
1!
#3941947
0!
#3953154
1!
#3959640
0!
#3970781
1!
#3977201
0!
#3988386
1!
#3994805
0!
#4006012
1!
#4021764
0!
#4032706
1!
#4921186
0!
#4933121
1!
#4939011
0!
#4959616
1!
#4965617
0!
#4977177
1!
#4992046
0!
#5012320
1!
#5027630
0!
#5047948
1!
#5054346
0!
#5065553
1!
#5071928
0!
#5083179
1!
#5089687
0!
#5100277
1!
#5106829
0!
#5118212
1!
#5124676
0!
#5135927
1!
#5151811
0!
#5162885
1!
#6054190
0!
#6066257
1!
#6072257
0!
#6092774
1!
#6098841
0!
#6110533
1!
#6125579
0!
#6146117
1!
#6161560
0!
#6182099
1!
#6188342
0!
#6198335
1!
#6204468
0!
#6215808
1!
#6222338
0!
#6233589
1!
#6240141
0!
#6251458
1!
#6257944
0!
#6269283
1!
#6285211
0!
#6296308
1!
#7184678
0!
#7196723
1!
#7202724
0!
#7223307
1!
#7229307
0!
#7240911
1!
#7255979
0!
#7275856
1!
#7291188
0!
#7311727
1!
#7318190
0!
#7329552
1!
#7336016
0!
#7347377
1!
#7353907
0!
#7365202
1!
#7371754
0!
#7383094
1!
#7389513
0!
#7400831
1!
#7416736
0!
#7427524
1!
#8318806
0!
#8330852
1!
#8336830
0!
#8357369
1!
#8363458
0!
#8375128
1!
#8390195
0!
#8410734
1!
#8425846
0!
#8445767
1!
#8452253
0!
#8463614
1!
#8469901
0!
#8481196
1!
#8487528
0!
#8498625
1!
#8505177
0!
#8516406
1!
#8522892
0!
#8534209
1!
#8550159
0!
#8561233
1!
#9451523
0!
#9462884
1!
#9468598
0!
#9488982
1!
#9495071
0!
#9506719
1!
#9521721
0!
#9542083
1!
#9557349
0!
#9577865
1!
#9584351
0!
#9595713
1!
#9602177
0!
#9613516
1!
#9620068
0!
#9631341
1!
#9637893
0!
#9649232
1!
#9655718
0!
#9666881
1!
#9682787
0!
#9693862
1!
#10582695
0!
#10594696
1!
#10600719
0!
#10621302
1!
#10627390
0!
#10639061
1!
#10653841
0!
#10673476
1!
#10688918
0!
#10709302
1!
#10715744
0!
#10726951
1!
#10733415
0!
#10744776
1!
#10750821
0!
#10762094
1!
#10768624
0!
#10779963
1!
#10786471
0!
#10797789
1!
#10813739
0!
#10824791
1!
#11713492
0!
#11725537
1!
#11731560
0!
#11752253
1!
#11758342
0!
#11770012
1!
#11785080
0!
#11805596
1!
#11821017
0!
#11841578
1!
#11846916
0!
#11858101
1!
#11864565
0!
#11875927
1!
#11882457
0!
#11893752
1!
#11900282
0!
#11911621
1!
#11918063
0!
#11929380
1!
#11945330
0!
#11956405
1!
#12847576
0!
#12859622
1!
#12865666
0!
#12886337
1!
#12892426
0!
#12904118
1!
#12919164
0!
#12939570
1!
#12955013
0!
#12975552
1!
#12981993
0!
#12993333
1!
#12999819
0!
#13011158
1!
#13017710
0!
#13029005
1!
#13035535
0!
#13045926
1!
#13052257
0!
#13063553
1!
#13079370
0!
#13090379
1!
#13981109
0!
#13992956
1!
#13998956
0!
#14019341
1!
#14025363
0!
#14036923
1!
#14051881
0!
#14072110
1!
#14087332
0!
#14106084
1!
#14112548
0!
#14123887
1!
#14130373
0!
#14141690
1!
#14148176
0!
#14159449
1!
#14165935
0!
#14177208
1!
#14183650
0!
#14194835
1!
#14210587
0!
#14221661
1!
#14927373
1! 0" 0# 0$ 1% 1& 0' 1(
