branches/tfla-01-0.2/doc/test/TEMP2.vcd
$date
$end
$version LPC2148 AKSOFT Logic Analyzer 1.0  $end
$timescale 100 ns $end
$scope module TFLA $end
$var wire 1 ! D0 $end
$var wire 1 " D1 $end
$var wire 1 # D2 $end
$var wire 1 $ D3 $end
$var wire 1 % D4 $end
$var wire 1 & D5 $end
$var wire 1 ' D6 $end
$var wire 1 ( D7 $end
$upscope $end
$enddefinitions $end
$dumpvars
#0
1! 0" 0# 0$ 0% 0& 0' 0(
$end
#804128
 1"
#823818
 0"
#833498
 1"
#853228
 0"
#862978
 1"
#882218
 0"
#892488
 1"
#911698
 0"
#921488
 1"
#940748
 0"
#950978
 1"
#970228
 0"
#980448
 1"
#999218
 0"
#1009488
 1"
#1028618
 0"
#1038848
 1"
#1057698
 0"
#1068338
 1"
#1087178
 0"
#1097378
 1"
#1116618
 0"
#1126878
 1"
#1245628
 0"
#1352248
 1"
#1373748
 0"
#1486688
 1"
#1593758
 0"
#1603988
 1"
#1725468
 0"
#1837958
 1"
#1857138
 0"
#1963798
 1"
#2076738
 0"
#2101788
 1"
#2223268
 0"
#3287008
 1"
#3306248
 0"
#3316448
 1"
#3335738
 0"
#3345968
 1"
#3365168
 0"
#3374998
 1"
#3394208
 0"
#3404438
 1"
#3423688
 0"
#3433478
 1"
#3452658
 0"
#3462888
 1"
#3482098
 0"
#3492368
 1"
#3511138
 0"
#3521368
 1"
#3628238
 0"
#3793238
 1"
#3812418
 0"
#3919068
 1"
#3929788
 0"
#4057068
 1"
#4178548
 0"
#4188778
 1"
#14310718
 0"
#14320948
 1"
#14427448
 0"
#14533848
 1"
#14647238
 0"
#14657918
 1"
#14764568
 0"
#15285940
1! 0" 0# 0$ 0% 0& 0' 0(
