branches/tfla-01-0.2/doc/test/TEMP1b.vcd
$date
$end
$version LPC2148 AKSOFT Logic Analyzer 1.0  $end
$timescale 100 ns $end
$scope module TFLA $end
$var wire 1 ! D0 $end
$var wire 1 " D1 $end
$var wire 1 # D2 $end
$var wire 1 $ D3 $end
$var wire 1 % D4 $end
$var wire 1 & D5 $end
$var wire 1 ' D6 $end
$var wire 1 ( D7 $end
$upscope $end
$enddefinitions $end
$dumpvars
#0
1! 0" 0# 0$ 0% 0& 0' 0(
$end
#10530
 1"
#19360
 0"
#29470
 1"
#48630
 0"
#58810
 1"
#77930
 0"
#88080
 1"
#107250
 0"
#117250
 1"
#136290
 0"
#146760
 1"
#165770
 0"
#175830
 1"
#195210
 0"
#205230
 1"
#224320
 0"
#234760
 1"
#253410
 0"
#263860
 1"
#282910
 0"
#292990
 1"
#312000
 0"
#322480
 1"
#341540
 0"
#381740
 1"
#441180
 0"
#506210
 1"
#525680
 0"
#535760
 1"
#569600
 0"
#594020
 1"
#701410
 0"
#711460
 1"
#818560
 0"
#924150
 1"
#950350
 0"
#975330
 1"
#1082140
 0"
#1092530
 1"
#1198420
 0"
#1304060
 1"
#1316650
 0"
#1422320
 1"
#1433570
 0"
#1733890
 1"
#1739280
 0"
#1760880
 1"
#1766330
 0"
#2482790
 1"
#2502220
 0"
#2512050
 1"
#2531430
 0"
#2541410
 1"
#2560770
 0"
#2570690
 1"
#2589650
 0"
#2600030
 1"
#2618990
 0"
#2629370
 1"
#2648290
 0"
#2658720
 1"
#2677640
 0"
#2783340
 1"
#2923860
 0"
#2989150
 1"
#3008070
 0"
#3018040
 1"
#3125210
 0"
#3230950
 1"
#3242670
 0"
#3348360
 1"
#3359630
 0"
#3465570
 1"
#13571430
 0"
#13577280
 1"
#13683430
 0"
#13789460
 1"
#13799290
 0"
#13905570
 1"
#14011750
 0"
#300004800
 1"
#300024480
 0"
#300034220
 1"
#300053930
 0"
#300063660
 1"
#300082890
 0"
#300093140
 1"
#300112340
 0"
#300122110
 1"
#300141350
 0"
#300151560
 1"
#300170680
 0"
#300180930
 1"
#300200130
 0"
#300210340
 1"
#300229130
 0"
#300239350
 1"
#300258620
 0"
#300268800
 1"
#300288020
 0"
#300298230
 1"
#300317010
 0"
#300327670
 1"
#300446170
 0"
#300552660
 1"
#300574590
 0"
#300687450
 1"
#300794130
 0"
#300804350
 1"
#300926060
 0"
#301038790
 1"
#301057950
 0"
#301164590
 1"
#301277330
 0"
#301287960
 1"
#301394820
 0"
#301803270
 1"
#301809380
 0"
#301822300
 1"
#301828490
 0"
#302487600
 1"
#302506870
 0"
#302517050
 1"
#302536330
 0"
#302546070
 1"
#302565730
 0"
#302575540
 1"
#302594740
 0"
#302604960
 1"
#302624120
 0"
#302634330
 1"
#302653570
 0"
#302760210
 1"
#302866590
 0"
#302872810
 1"
#302979200
 0"
#303085760
 1"
#303192230
 0"
#303199260
 1"
#303320720
 0"
#303433650
 1"
#303452440
 0"
#313558800
 1"
#313672420
 0"
#313682630
 1"
#313789320
 0"
#313895700
 1"
#314002350
 0"
#600009760
 1"
#600029450
 0"
#600039130
 1"
#600058860
 0"
#600068610
 1"
#600087850
 0"
#600098120
 1"
#600117330
 0"
#600127120
 1"
#600146380
 0"
#600156610
 1"
#600175860
 0"
#600186080
 1"
#600204850
 0"
#600215120
 1"
#600234250
 0"
#600244480
 1"
#600263330
 0"
#600273970
 1"
#600292810
 0"
#600303010
 1"
#600322250
 0"
#600332510
 1"
#600451260
 0"
#600557880
 1"
#600579380
 0"
#600692320
 1"
#600799390
 0"
#600809620
 1"
#600931100
 0"
#601043590
 1"
#601062770
 0"
#601169430
 1"
#601282370
 0"
#601307420
 1"
#601428900
 0"
#602492640
 1"
#602511880
 0"
#602522080
 1"
#602541370
 0"
#602551600
 1"
#602570800
 0"
#602580630
 1"
#602599840
 0"
#602610070
 1"
#602629320
 0"
#602639110
 1"
#602658290
 0"
#602668520
 1"
#602687730
 0"
#602698000
 1"
#602716770
 0"
#602727000
 1"
#602833870
 0"
#602998870
 1"
#603018050
 0"
#603124700
 1"
#603135420
 0"
#603262700
 1"
#603384180
 0"
#603394410
 1"
#613516350
 0"
#613526580
 1"
#613633080
 0"
#613739480
 1"
#613852870
 0"
#613863550
 1"
#613970200
 0"
#900015170
 1"
#900034400
 0"
#900044170
 1"
#900063910
 0"
#900073680
 1"
#900092980
 0"
#900102750
 1"
#900122460
 0"
#900132300
 1"
#900151530
 0"
#900161780
 1"
#900180600
 0"
#900190850
 1"
#900210000
 0"
#900220280
 1"
#900239510
 0"
#900249760
 1"
#900268590
 0"
#900278840
 1"
#900297690
 0"
#900307910
 1"
#900327170
 0"
#900337420
 1"
#900456180
 0"
#900562860
 1"
#900584370
 0"
#900697310
 1"
#900818830
 0"
#900843850
 1"
#900950380
 0"
#900961070
 1"
#901068010
 0"
#901174650
 1"
#901281330
 0"
#901287480
 1"
#901404750
 0"
#901772220
 1"
#901778360
 0"
#901788170
 1"
#901794390
 0"
#902497730
 1"
#902516910
 0"
#902527130
 1"
#902546440
 0"
#902556210
 1"
#902575510
 0"
#902585760
 1"
#902604990
 0"
#902614830
 1"
#902634060
 0"
#902644310
 1"
#902663580
 0"
#902770170
 1"
#902876860
 0"
#902883040
 1"
#902989530
 0"
#903095970
 1"
#903202540
 0"
#903209230
 1"
#903315650
 0"
#903443280
 1"
#903462580
 0"
#913568970
 1"
#913682370
 0"
#913692660
 1"
#913799340
 0"
#913905760
 1"
#914012470
 0"
#1200020090
 1"
#1200039630
 0"
#1200049190
 1"
#1200068800
 0"
#1200078440
 1"
#1200098040
 0"
#1200108160
 1"
#1200127260
 0"
#1200137420
 1"
#1200156520
 0"
#1200166640
 1"
#1200185780
 0"
#1200195890
 1"
#1200215040
 0"
#1200225150
 1"
#1200244180
 0"
#1200254340
 1"
#1200273440
 0"
#1200284000
 1"
#1200302720
 0"
#1200313260
 1"
#1200461040
 0"
#1200526470
 1"
#1200545610
 0"
#1200652560
 1"
#1200765320
 0"
#1200872160
 1"
#1200882280
 0"
#1200995350
 1"
#1201102080
 0"
#1201214910
 1"
#1201234020
 0"
#1201340860
 1"
#1201447770
 0"
#1202502490
 1"
#1202522060
 0"
#1202532180
 1"
#1202551310
 0"
#1202561400
 1"
#1202580580
 0"
#1202590700
 1"
#1202609800
 0"
#1202619960
 1"
#1202639060
 0"
#1202649180
 1"
#1202668320
 0"
#1202678440
 1"
#1202697510
 0"
#1202708070
 1"
#1202815110
 0"
#1202922020
 1"
#1203028820
 0"
#1203038500
 1"
#1203145270
 0"
#1203272960
 1"
#1203291990
 0"
#1203399020
 1"
#1213505790
 0"
#1213612790
 1"
#1213719700
 0"
#1213741540
 1"
#1213848530
 0"
#1500025160
 1"
#1500044270
 0"
#1500054410
 1"
#1500073990
 0"
#1500083640
 1"
#1500103260
 0"
#1500112940
 1"
#1500132530
 0"
#1500142210
 1"
#1500161680
 0"
#1500171810
 1"
#1500190960
 0"
#1500201080
 1"
#1500220230
 0"
#1500230350
 1"
#1500249460
 0"
#1500259620
 1"
#1500278760
 0"
#1500288850
 1"
#1500308030
 0"
#1500318130
 1"
#1500466280
 0"
#1500531340
 1"
#1500550500
 0"
#1500657260
 1"
#1500770460
 0"
#1500882860
 1"
#1500902010
 0"
#1501008930
 1"
#1501115970
 0"
#1501222740
 1"
#1501238710
 0"
#1501351800
 1"
#1501458640
 0"
#1502507530
 1"
#1502527110
 0"
#1502537250
 1"
#1502556310
 0"
#1502566400
 1"
#1502585570
 0"
#1502595700
 1"
#1502614850
 0"
#1502624970
 1"
#1502644080
 0"
#1502654240
 1"
#1502673350
 0"
#1502683480
 1"
#1502702630
 0"
#1502712750
 1"
#1502819970
 0"
#1502926930
 1"
#1503033880
 0"
#1503043570
 1"
#1503150410
 0"
#1503263030
 1"
#1503384880
 0"
#1503394980
 1"
#1513501750
 0"
#1513608750
 1"
#1513721550
 0"
#1513732150
 1"
#1513853530
 0"
#1800030070
 1"
#1800049620
 0"
#1800059330
 1"
#1800078920
 0"
#1800088580
 1"
#1800108210
 0"
#1800117870
 1"
#1800137500
 0"
#1800147190
 1"
#1800166740
 0"
#1800176930
 1"
#1800196040
 0"
#1800206180
 1"
#1800225260
 0"
#1800235390
 1"
#1800254550
 0"
#1800264680
 1"
#1800283830
 0"
#1800293980
 1"
#1800313120
 0"
#1800323230
 1"
#1800471390
 0"
#1800536510
 1"
#1800555630
 0"
#1800662410
 1"
#1800769380
 0"
#1800876350
 1"
#1800995080
 0"
#1801005210
 1"
#1801112400
 0"
#1801239690
 1"
#1801273190
 0"
#1801386290
 1"
#1801493260
 0"
#1801823840
 1"
#1801830390
 0"
#1802512820
 1"
#1802531970
 0"
#1802542120
 1"
#1802561260
 0"
#1802571370
 1"
#1802590560
 0"
#1802600700
 1"
#1802619850
 0"
#1802629990
 1"
#1802649470
 0"
#1802659200
 1"
#1802678750
 0"
#1802785610
 1"
#1802795740
 0"
#1802902490
 1"
#1803009500
 0"
#1803116470
 1"
#1803126130
 0"
#1803232990
 1"
#1803339770
 0"
#1803413820
 1"
#1813536100
 0"
#1813643100
 1"
#1813653290
 0"
#1813766500
 1"
#1813902560
 0"
#1813912700
 1"
#1814019750
 0"
#2100035170
 1"
#2100054780
 0"
#2100064450
 1"
#2100083960
 0"
#2100093670
 1"
#2100113270
 0"
#2100123410
 1"
#2100142570
 0"
#2100152710
 1"
#2100171830
 0"
#2100182020
 1"
#2100201140
 0"
#2100211280
 1"
#2100230440
 0"
#2100240590
 1"
#2100259750
 0"
#2100269890
 1"
#2100288970
 0"
#2100299130
 1"
#2100318280
 0"
#2100328390
 1"
#2100476390
 0"
#2100541440
 1"
#2100560560
 0"
#2100667350
 1"
#2100774370
 0"
#2100881300
 1"
#2101000280
 0"
#2101010420
 1"
#2101117370
 0"
#2101244920
 1"
#2101263650
 0"
#2101376500
 1"
#2101483410
 0"
#2102517700
 1"
#2102537340
 0"
#2102547010
 1"
#2102566600
 0"
#2102576320
 1"
#2102595910
 0"
#2102606060
 1"
#2102625220
 0"
#2102635360
 1"
#2102654520
 0"
#2102664670
 1"
#2102683790
 0"
#2102693980
 1"
#2102713030
 0"
#2102723170
 1"
#2102830220
 0"
#2102936980
 1"
#2103043990
 0"
#2103053730
 1"
#2103160670
 0"
#2103267690
 1"
#2103380350
 0"
#2103390490
 1"
#2113512150
 0"
#2113618930
 1"
#2113725840
 0"
#2113732470
 1"
#2113848820
1! 1" 0# 0$ 0% 0& 0' 0(
